%YAML 1.1
%TAG !u! tag:unity3d.com,2011:
--- !u!1001 &100100000
Prefab:
  m_ObjectHideFlags: 1
  serializedVersion: 2
  m_Modification:
    m_TransformParent: {fileID: 0}
    m_Modifications: []
    m_RemovedComponents: []
  m_ParentPrefab: {fileID: 0}
  m_RootGameObject: {fileID: 1162619098536920}
  m_IsPrefabParent: 1
--- !u!1 &1162619098536920
GameObject:
  m_ObjectHideFlags: 0
  m_PrefabParentObject: {fileID: 0}
  m_PrefabInternal: {fileID: 100100000}
  serializedVersion: 5
  m_Component:
  - component: {fileID: 4784856501326590}
  - component: {fileID: 114908672153949466}
  m_Layer: 0
  m_Name: NPCSpawnerUnique
  m_TagString: Untagged
  m_Icon: {fileID: 0}
  m_NavMeshLayer: 0
  m_StaticEditorFlags: 0
  m_IsActive: 1
--- !u!4 &4784856501326590
Transform:
  m_ObjectHideFlags: 1
  m_PrefabParentObject: {fileID: 0}
  m_PrefabInternal: {fileID: 100100000}
  m_GameObject: {fileID: 1162619098536920}
  m_LocalRotation: {x: 0, y: 0, z: 0, w: 1}
  m_LocalPosition: {x: 775.21277, y: -441.7815, z: 191.10205}
  m_LocalScale: {x: 1, y: 1, z: 1}
  m_Children: []
  m_Father: {fileID: 0}
  m_RootOrder: 0
  m_LocalEulerAnglesHint: {x: 0, y: 0, z: 0}
--- !u!114 &114908672153949466
MonoBehaviour:
  m_ObjectHideFlags: 1
  m_PrefabParentObject: {fileID: 0}
  m_PrefabInternal: {fileID: 100100000}
  m_GameObject: {fileID: 1162619098536920}
  m_Enabled: 1
  m_EditorHideFlags: 0
  m_Script: {fileID: 11500000, guid: 1f799fd7b62bf484289a18114ed8ad17, type: 3}
  m_Name: 
  m_EditorClassIdentifier: 
  insultBefore: {fileID: 0}
  insultAfter: {fileID: 0}
  kickBagBefore: {fileID: 0}
  kickbagAfter: {fileID: 0}
  coffeeBefore: {fileID: 0}
  coffeeAfter: {fileID: 0}
  stealClothingBefore: {fileID: 0}
  stealClothingAfter: {fileID: 0}
  stealFoodBefore: {fileID: 0}
  stealFoodAfter: {fileID: 0}
  pocketSandBefore: {fileID: 0}
  pocketSandAfter: {fileID: 0}
  gutterBefore: {fileID: 0}
  gutterAfter: {fileID: 0}
  minionBefore: {fileID: 0}
  minionAfter: {fileID: 0}
  phoneBefore: {fileID: 0}
  phoneAfter: {fileID: 0}
  germsBefore: {fileID: 0}
  germsAfter: {fileID: 0}
  pissBefore: {fileID: 0}
  pissAfter: {fileID: 0}
  spitBefore: {fileID: 0}
  spitAfter: {fileID: 0}
  slapAnimalBefore: {fileID: 0}
  slapAnimalAfter: {fileID: 0}
  nunPunchBefore: {fileID: 0}
  nunPunchAfter: {fileID: 0}
  babyPuntBefore: {fileID: 0}
  babyPuntAfter: {fileID: 0}
  insultRef: {fileID: 0}
  kickBagRef: {fileID: 0}
  coffeeRef: {fileID: 0}
  stealClothingRef: {fileID: 0}
  stealFoodRef: {fileID: 0}
  pocketSandRef: {fileID: 0}
  gutterRef: {fileID: 0}
  minionRef: {fileID: 0}
  phoneRef: {fileID: 0}
  germsRef: {fileID: 0}
  pissRef: {fileID: 0}
  spitRef: {fileID: 0}
  slapAnimalRef: {fileID: 0}
  nunPunchRef: {fileID: 0}
  babyPuntRef: {fileID: 0}
